%YAML 1.1
%TAG !u! tag:unity3d.com,2011:
--- !u!74 &7400000
AnimationClip:
  m_ObjectHideFlags: 0
  m_PrefabParentObject: {fileID: 0}
  m_PrefabInternal: {fileID: 0}
  m_Name: Walk
  serializedVersion: 6
  m_Legacy: 1
  m_Compressed: 0
  m_UseHighQualityCurve: 1
  m_RotationCurves: []
  m_CompressedRotationCurves: []
  m_EulerCurves: []
  m_PositionCurves:
  - curve:
      serializedVersion: 2
      m_Curve:
      - serializedVersion: 2
        time: 0
        value: {x: 0, y: 0, z: 0}
        inSlope: {x: 0.027500002, y: 0.027500002, z: 0}
        outSlope: {x: 0.027500002, y: 0.027500002, z: 0}
        tangentMode: 0
      - serializedVersion: 2
        time: 0.29090908
        value: {x: 0.008, y: 0.008, z: 0}
        inSlope: {x: 0.013750001, y: -0.041249987, z: 0}
        outSlope: {x: 0.013750001, y: -0.041249987, z: 0}
        tangentMode: 0
      - serializedVersion: 2
        time: 0.36363637
        value: {x: 0.008, y: 0, z: 0}
        inSlope: {x: -0.022, y: -0.05499999, z: 0}
        outSlope: {x: -0.022, y: -0.05499999, z: 0}
        tangentMode: 0
      - serializedVersion: 2
        time: 0.54545456
        value: {x: 0, y: 0, z: 0}
        inSlope: {x: -0.03575, y: 0.013750003, z: 0}
        outSlope: {x: -0.03575, y: 0.013750003, z: 0}
        tangentMode: 0
      - serializedVersion: 2
        time: 0.8363636
        value: {x: -0.008, y: 0.008, z: 0}
        inSlope: {x: -0.013750003, y: -0.041249964, z: 0}
        outSlope: {x: -0.013750003, y: -0.041249964, z: 0}
        tangentMode: 0
      - serializedVersion: 2
        time: 0.90909094
        value: {x: -0.008, y: 0, z: 0}
        inSlope: {x: 0.022, y: -0.054999966, z: 0}
        outSlope: {x: 0.022, y: -0.054999966, z: 0}
        tangentMode: 0
      - serializedVersion: 2
        time: 1.0909091
        value: {x: 0, y: 0, z: 0}
        inSlope: {x: 0.044, y: 0, z: 0}
        outSlope: {x: 0.044, y: 0, z: 0}
        tangentMode: 0
      m_PreInfinity: 2
      m_PostInfinity: 2
      m_RotationOrder: 4
    path: 
  m_ScaleCurves: []
  m_FloatCurves: []
  m_PPtrCurves: []
  m_SampleRate: 55
  m_WrapMode: 2
  m_Bounds:
    m_Center: {x: 0, y: 0, z: 0}
    m_Extent: {x: 0, y: 0, z: 0}
  m_ClipBindingConstant:
    genericBindings: []
    pptrCurveMapping: []
  m_AnimationClipSettings:
    serializedVersion: 2
    m_AdditiveReferencePoseClip: {fileID: 0}
    m_AdditiveReferencePoseTime: 0
    m_StartTime: 0
    m_StopTime: 1.0909091
    m_OrientationOffsetY: 0
    m_Level: 0
    m_CycleOffset: 0
    m_HasAdditiveReferencePose: 0
    m_LoopTime: 0
    m_LoopBlend: 0
    m_LoopBlendOrientation: 0
    m_LoopBlendPositionY: 0
    m_LoopBlendPositionXZ: 0
    m_KeepOriginalOrientation: 0
    m_KeepOriginalPositionY: 1
    m_KeepOriginalPositionXZ: 0
    m_HeightFromFeet: 0
    m_Mirror: 0
  m_EditorCurves:
  - curve:
      serializedVersion: 2
      m_Curve:
      - serializedVersion: 2
        time: 0
        value: 0
        inSlope: 0.027500002
        outSlope: 0.027500002
        tangentMode: 34
      - serializedVersion: 2
        time: 0.29090908
        value: 0.008
        inSlope: 0.013750001
        outSlope: 0.013750001
        tangentMode: 34
      - serializedVersion: 2
        time: 0.36363637
        value: 0.008
        inSlope: -0.022
        outSlope: -0.022
        tangentMode: 34
      - serializedVersion: 2
        time: 0.54545456
        value: 0
        inSlope: -0.03575
        outSlope: -0.03575
        tangentMode: 34
      - serializedVersion: 2
        time: 0.8363636
        value: -0.008
        inSlope: -0.013750003
        outSlope: -0.013750003
        tangentMode: 34
      - serializedVersion: 2
        time: 0.90909094
        value: -0.008
        inSlope: 0.022
        outSlope: 0.022
        tangentMode: 34
      - serializedVersion: 2
        time: 1.0909091
        value: 0
        inSlope: 0.044
        outSlope: 0.044
        tangentMode: 34
      m_PreInfinity: 2
      m_PostInfinity: 2
      m_RotationOrder: 4
    attribute: m_LocalPosition.x
    path: 
    classID: 4
    script: {fileID: 0}
  - curve:
      serializedVersion: 2
      m_Curve:
      - serializedVersion: 2
        time: 0
        value: 0
        inSlope: 0.027500002
        outSlope: 0.027500002
        tangentMode: 34
      - serializedVersion: 2
        time: 0.29090908
        value: 0.008
        inSlope: -0.041249987
        outSlope: -0.041249987
        tangentMode: 34
      - serializedVersion: 2
        time: 0.36363637
        value: 0
        inSlope: -0.05499999
        outSlope: -0.05499999
        tangentMode: 34
      - serializedVersion: 2
        time: 0.54545456
        value: 0
        inSlope: 0.013750003
        outSlope: 0.013750003
        tangentMode: 34
      - serializedVersion: 2
        time: 0.8363636
        value: 0.008
        inSlope: -0.041249964
        outSlope: -0.041249964
        tangentMode: 34
      - serializedVersion: 2
        time: 0.90909094
        value: 0
        inSlope: -0.054999966
        outSlope: -0.054999966
        tangentMode: 34
      - serializedVersion: 2
        time: 1.0909091
        value: 0
        inSlope: 0
        outSlope: 0
        tangentMode: 34
      m_PreInfinity: 2
      m_PostInfinity: 2
      m_RotationOrder: 4
    attribute: m_LocalPosition.y
    path: 
    classID: 4
    script: {fileID: 0}
  - curve:
      serializedVersion: 2
      m_Curve:
      - serializedVersion: 2
        time: 0
        value: 0
        inSlope: 0
        outSlope: 0
        tangentMode: 34
      - serializedVersion: 2
        time: 0.29090908
        value: 0
        inSlope: 0
        outSlope: 0
        tangentMode: 34
      - serializedVersion: 2
        time: 0.36363637
        value: 0
        inSlope: 0
        outSlope: 0
        tangentMode: 34
      - serializedVersion: 2
        time: 0.54545456
        value: 0
        inSlope: 0
        outSlope: 0
        tangentMode: 34
      - serializedVersion: 2
        time: 0.8363636
        value: 0
        inSlope: 0
        outSlope: 0
        tangentMode: 34
      - serializedVersion: 2
        time: 0.90909094
        value: 0
        inSlope: 0
        outSlope: 0
        tangentMode: 34
      - serializedVersion: 2
        time: 1.0909091
        value: 0
        inSlope: 0
        outSlope: 0
        tangentMode: 34
      m_PreInfinity: 2
      m_PostInfinity: 2
      m_RotationOrder: 4
    attribute: m_LocalPosition.z
    path: 
    classID: 4
    script: {fileID: 0}
  m_EulerEditorCurves: []
  m_HasGenericRootTransform: 0
  m_HasMotionFloatCurves: 0
  m_GenerateMotionCurves: 0
  m_Events: []
--- !u!1002 &7400001
EditorExtensionImpl:
  serializedVersion: 6
